{
  "type": "service_account",
  "project_id": "john-martang",
  "private_key_id": "325d82d1fabae61dbc081fd292638971a4c1a4ff",
  "private_key": "-----BEGIN PRIVATE KEY-----\nMIIEvQIBADANBgkqhkiG9w0BAQEFAASCBKcwggSjAgEAAoIBAQDEbCme/bEl3jgy\nxV1Rs7hsMS7Qjk7jpBdRmRhvzab4MxhEgxzXSsEO4CIqUR5qHO/c4TX14v2ieu+j\nL1UwQsDxkLXLVtTUQ6Rw0RlEZU6R4iMuKJZ9161bzeyuTiQM0ol+HowGqLnuT2sA\nal6fQM4d+G5M8LvBZOyBUyADEH7gI4jLR0FBECPeLe0SIz+R4Yh1DR564olAbmdc\npF/bfGtGxGfnNolOtTmFyqmBhGT9cie/rGz41WmhODTZ31sqjNIh69sKja2VodxV\n7yC8AbUZy+w9Jy6c5Z9CjyONLc0zOXhvGaAJ2RL/zhHB5e1XTO7xbSg+BWFH7Jfm\nk0XvGm/DAgMBAAECggEAGaJoGCjRurhyqyWY1TXYRr5wdqVr5EehB3QsfULgnJnG\nfAKEfBB0e6WCr/UgPAcEwtXdffae1Vqn9asSuhasKZqSLzRo2D7vsg2H96YlB+L0\nZmzDny7LoCSS0/i8ubOsX/pKmf/hLBnPRCGdsbj6bWzjsETmrAmo2APqNJwtgsDF\nrntWOn4xlpVxSWJs1T4fOHvereERnEadt7C1Ezx+u6gvIvrPgTM0alfIVw5EVMDq\nt0e36WTawcB5xYbMZpIhfZ+hqJBgLIdDULwI3p9YBslEYPZZBMrcmZvRJ6G0y2nw\nVQ73b/EdJXJ/2Mp9mKc2Ho4tGqQAI3ndf7rbVqggsQKBgQD1n1UCx1M0I68R4/P0\nRNwpAMcfHCPw7REEsO4TIG617ZQQfqshWJq1//Fx08boM4bnqEJUrPEiTdvi0zI7\nSefXo9Uyv7tXGWSuV+ORs6/g2A23+L0CpY2PrkYf7rEzhL0VnyJuXpG+SuvYF3M9\n3DNy2EyutAGPlVltRDQ2WigE+QKBgQDMuK5t1N2HZUfvxzNjYBahEyUCOJcKnzQF\nXdlLzfPwTtXOaMFyb9d605LMnslUHKQPcpnrPzU8zTuXE63f/mFFzmtxiucl0gIZ\nuqjypzePaVzku9FYMzWoiueBhoQhU0tG21xBmFiCNwEinDh87E3uQxTP1fJgPqbk\nTvkNzO8VmwKBgETfxc2+qNUhAHFq0zh2qqmQv0U49dcUEsaW+ltAp+q50OADNOdn\n2hIYz9JUSR1JfZWt99OYnxE4deUXxakcYzdziE/vtY+J3lKI8JYlpbbNvqMMy6tX\nUuesPZusqeHBYegTNGtwdzu99H4mrTj2azLT9kSy0xE5Ftdt3Zo0E665AoGAA5uh\nn1foC5HSYbxuAGtaGr6eoVpj9xD1Nr7/rGFV0j9hb0DTX/PupUCDTs3hmHTkw0zu\nv4Geq5KmYTQ8lT0Dc9p+dELRbg40cUWj4prl1MYzl+hjeR117aF9EQBQ5dF0+yu0\nhYdsz+auQ3DjYfg8K13NSRhpLB8Oi+mEZCTfdc8CgYEAvFwES8joKgmD9x1QhFh7\njv7N3r8lHA72u0mdG7K6mkmyYy/PZAp+E0U3cN2c6SjxnTyIwNsyRGf7Gen9NGLj\n9ejDzHZ9UQxJsIDGQcdGi34rwb0BFITNWfc/u1gLyE1KYr+6ba6L+Haz1VsxNDvW\nOLuulZLdIKPE/wjjFJQl73w=\n-----END PRIVATE KEY-----\n",
  "client_email": "firebase-adminsdk-ki3zp@john-martang.iam.gserviceaccount.com",
  "client_id": "114907231668775902656",
  "auth_uri": "https://accounts.google.com/o/oauth2/auth",
  "token_uri": "https://oauth2.googleapis.com/token",
  "auth_provider_x509_cert_url": "https://www.googleapis.com/oauth2/v1/certs",
  "client_x509_cert_url": "https://www.googleapis.com/robot/v1/metadata/x509/firebase-adminsdk-ki3zp%40john-martang.iam.gserviceaccount.com"
}
